…
5:       NA Diffusion_brain_MRI
6:       NA Diffusion_brain_MRI
                                          GBE_short_name
1:  Mean FA in middle cerebellar peduncle on FA skeleton
2:      Mean FA in pontine crossing tract on FA skeleton
3:     Mean FA in genu of corpus callosum on FA skeleton
4:     Mean FA in body of corpus callosum on FA skeleton
5: Mean FA in splenium of corpus callosum on FA skeleton
6:                      Mean FA in fornix on FA skeleton
   value < 0      n
1:     FALSE 561534
   array      n
1:     0 561534
[1] "phe_long_df"
# A tibble: 510,492 × 4
   FID     IID     GBE_ID   value
   <chr>   <chr>   <fct>    <dbl>
 1 1000044 1000044 INI25014  4013
 2 1000289 1000289 INI25014  4404
 3 1000457 1000457 INI25014  3053
 4 1000537 1000537 INI25014  3752
 5 1000703 1000703 INI25014  3627
 6 1000742 1000742 INI25014  3695
 7 1000756 1000756 INI25014  3843
 8 1000881 1000881 INI25014  3399
 9 1000890 1000890 INI25014  3074
10 1001115 1001115 INI25014  4284
# … with 510,482 more rows
…
