…
     GBE_ID                                               GBE_NAME Short_Name
1: INI25888               Volume of grey matter in Amygdala (left)  VGM_Amd_L
2: INI25829 Volume of grey matter in Intracalcarine Cortex (right)  VGM_Icc_R
   Category                                                Category_Name
1:     1101 T1 Structural brain MRI, Regional grey matter volumes (FAST)
2:     1101 T1 Structural brain MRI, Regional grey matter volumes (FAST)
                                                        URL GBE_short_name
1: https://biobank.ctsu.ox.ac.uk/crystal/field.cgi?id=25888     Short_Name
2: https://biobank.ctsu.ox.ac.uk/crystal/field.cgi?id=25829     Short_Name
   value < 0      n
1:     FALSE 102354
   array      n
1:     0 102354
[1] "phe_long_df"
# A tibble: 93,060 × 4
   FID     IID     GBE_ID   value
   <chr>   <chr>   <fct>    <dbl>
 1 1000044 1000044 INI25829 3805.
 2 1000289 1000289 INI25829 1827.
 3 1000457 1000457 INI25829 2069.
 4 1000537 1000537 INI25829 1963.
 5 1000703 1000703 INI25829 3102.
 6 1000742 1000742 INI25829 2353.
 7 1000756 1000756 INI25829 2184.
 8 1000881 1000881 INI25829 2329.
 9 1000890 1000890 INI25829 2369.
10 1001115 1001115 INI25829 2269.
# … with 93,050 more rows
…
