…
[421] "INI25897" "INI25898" "INI25899" "INI25903" "INI25904" "INI25906"
[427] "INI25907" "INI25908" "INI25909" "INI25910" "INI25911" "INI25912"
[433] "INI25914" "INI25915" "INI25916" "INI25917" "INI25919" "INI25920"
[1] "SQL_dump_f"
[1] "/net/bmc-lab4/data/kellis/users/az109/ukb21942/pheno/tmp/05_brain_mri/tab_dump.tsv.gz"
   value < 0        n
1:     FALSE 46889655
2:      TRUE   335140
   array        n
1:     0 47224795
Warning message:
Problem while computing `value = as.numeric(value)`.
ℹ NAs introduced by coercion 
[1] "phe_long_df"
# A tibble: 42,886,940 × 4
   FID     IID     GBE_ID   value
   <chr>   <chr>   <fct>    <dbl>
 1 1000044 1000044 INI20227    NA
 2 1000289 1000289 INI20227    NA
 3 1000457 1000457 INI20227    NA
 4 1000537 1000537 INI20227    NA
 5 1000703 1000703 INI20227    NA
 6 1000742 1000742 INI20227    NA
 7 1000756 1000756 INI20227    NA
 8 1000881 1000881 INI20227    NA
 9 1000890 1000890 INI20227    NA
10 1001115 1001115 INI20227    NA
# … with 42,886,930 more rows
…
488377:       NA       NA       NA       NA       NA       NA       NA       NA
        INI25920
     1:       NA
     2:       NA
     3:       NA
     4:       NA
     5:       NA
    ---         
488373:  394.790
488374:  467.321
488375:       NA
488376:       NA
488377:       NA
[1] "phe_counts_df"
# A tibble: 1,006 × 15
   GBE_ID   GBE_NAME GBE_short_name    WB   NBW   Afr    SA others WB_MM NBW_MM
   <fct>    <chr>    <chr>          <int> <int> <int> <int>  <int> <int>  <int>
 1 INI20227 <NA>     <NA>           34307  1324   236   388   3508 41600   1512
 2 INI20249 <NA>     <NA>           30074  1138   207   335   3046 36465   1297
 3 INI20251 <NA>     <NA>           29789  1120   193   332   3023 36119   1278
 4 INI20253 <NA>     <NA>           33806  1304   229   375   3459 40996   1487
 5 INI24360 <NA>     <NA>            3543   141    29    42    399  4301    169
 6 INI24361 <NA>     <NA>            3543   141    29    42    399  4301    169
 7 INI24362 <NA>     <NA>            3543   141    29    42    399  4301    169
 8 INI24363 <NA>     <NA>            3543   141    29    42    399  4301    169
 9 INI24364 <NA>     <NA>            3543   141    29    42    399  4301    169
10 INI24365 <NA>     <NA>            3543   141    29    42    399  4301    169
# … with 996 more rows, and 5 more variables: Afr_MM <int>, SA_MM <int>,
#   others_MM <int>, total <int>, total_MM <int>
…
