…
1:     1101 T1 Structural brain MRI, Regional grey matter volumes (FAST)
2:     1101 T1 Structural brain MRI, Regional grey matter volumes (FAST)
3:     1101 T1 Structural brain MRI, Regional grey matter volumes (FAST)
4:     1101 T1 Structural brain MRI, Regional grey matter volumes (FAST)
                                   GBE_short_name
1:      Vol. of grey matter in Ventral Striatum L
2: Vol. of grey matter in Intracalcarine Cortex R
3:     Vol. of grey matter in Crus I Cerebellum R
4: Vol. of grey matter in Intracalcarine Cortex L
   value < 0      n
1:     FALSE 204708
   array      n
1:     0 204708
[1] "phe_long_df"
# A tibble: 186,120 × 4
   FID     IID     GBE_ID   value
   <chr>   <chr>   <fct>    <dbl>
 1 1000044 1000044 INI25828 3332.
 2 1000289 1000289 INI25828 1741.
 3 1000457 1000457 INI25828 2146.
 4 1000537 1000537 INI25828 1995.
 5 1000703 1000703 INI25828 3075.
 6 1000742 1000742 INI25828 2361.
 7 1000756 1000756 INI25828 1853.
 8 1000881 1000881 INI25828 2121.
 9 1000890 1000890 INI25828 2610.
10 1001115 1001115 INI25828 2218.
# … with 186,110 more rows
…
