…
5:       NA Diffusion_brain_MRI
6:       NA Diffusion_brain_MRI
                                          GBE_short_name
1:  Mean FA in middle cerebellar peduncle on FA skeleton
2:      Mean FA in pontine crossing tract on FA skeleton
3:     Mean FA in genu of corpus callosum on FA skeleton
4:     Mean FA in body of corpus callosum on FA skeleton
5: Mean FA in splenium of corpus callosum on FA skeleton
6:                      Mean FA in fornix on FA skeleton
   value < 0     n
1:     FALSE 51177
   array     n
1:     0 51177
[1] "phe_long_df"
# A tibble: 46,530 × 4
   FID     IID     GBE_ID   value
   <chr>   <chr>   <fct>    <dbl>
 1 1000044 1000044 INI25890  569.
 2 1000289 1000289 INI25890  722.
 3 1000457 1000457 INI25890  481.
 4 1000537 1000537 INI25890  449.
 5 1000703 1000703 INI25890  613.
 6 1000742 1000742 INI25890  701.
 7 1000756 1000756 INI25890  501.
 8 1000881 1000881 INI25890  575.
 9 1000890 1000890 INI25890  546 
10 1001115 1001115 INI25890  570.
# … with 46,520 more rows
…
