…
6:       NA Diffusion_brain_MRI
                                          GBE_short_name
1:  Mean FA in middle cerebellar peduncle on FA skeleton
2:      Mean FA in pontine crossing tract on FA skeleton
3:     Mean FA in genu of corpus callosum on FA skeleton
4:     Mean FA in body of corpus callosum on FA skeleton
5: Mean FA in splenium of corpus callosum on FA skeleton
6:                      Mean FA in fornix on FA skeleton
   value < 0        n
1:     FALSE 21663877
2:      TRUE        7
   array        n
1:     0 21663884
[1] "phe_long_df"
# A tibble: 19,668,122 × 4
   FID     IID     GBE_ID   value
   <chr>   <chr>   <fct>    <dbl>
 1 1000044 1000044 INI25000  1.12
 2 1000289 1000289 INI25000  1.34
 3 1000457 1000457 INI25000  1.60
 4 1000537 1000537 INI25000  1.46
 5 1000703 1000703 INI25000  1.17
 6 1000742 1000742 INI25000  1.28
 7 1000756 1000756 INI25000  1.23
 8 1000881 1000881 INI25000  1.26
 9 1000890 1000890 INI25000  1.50
10 1001115 1001115 INI25000  1.25
# … with 19,668,112 more rows
…
488377:       NA       NA       NA       NA       NA       NA       NA       NA
        INI25912 INI25914 INI25915 INI25916 INI25917 INI25919 INI25920
     1:       NA       NA       NA       NA       NA       NA       NA
     2:       NA       NA       NA       NA       NA       NA       NA
     3:       NA       NA       NA       NA       NA       NA       NA
     4:       NA       NA       NA       NA       NA       NA       NA
     5:       NA       NA       NA       NA       NA       NA       NA
    ---                                                               
488373:  2974.11  2691.04  2607.79  458.650  2614.78   267.21  394.790
488374:  2101.23  2315.37  1665.64  467.329  1884.40   179.06  467.321
488375:       NA       NA       NA       NA       NA       NA       NA
488376:       NA       NA       NA       NA       NA       NA       NA
488377:       NA       NA       NA       NA       NA       NA       NA
[1] "phe_counts_df"
# A tibble: 438 × 15
   GBE_ID   GBE_NAME  GBE_short_name    WB   NBW   Afr    SA others WB_MM NBW_MM
   <fct>    <chr>     <chr>          <int> <int> <int> <int>  <int> <int>  <int>
 1 INI25000 Volumetr… Vol.tric scal… 32464  1242   219   370   3315 39361   1416
 2 INI25001 Vol. of … Vol. of perip… 32464  1242   219   370   3315 39361   1416
 3 INI25002 Vol. of … Vol. of perip… 32464  1242   219   370   3315 39361   1416
 4 INI25003 Vol. of … Vol. of ventr… 32464  1242   219   370   3315 39361   1416
 5 INI25004 Vol. of … Vol. of ventr… 32464  1242   219   370   3315 39361   1416
 6 INI25005 Vol. of … Vol. of grey … 32464  1242   219   370   3315 39361   1416
 7 INI25006 Vol. of … Vol. of grey … 32464  1242   219   370   3315 39361   1416
 8 INI25007 Vol. of … Vol. of white… 32464  1242   219   370   3315 39361   1416
 9 INI25008 Vol. of … Vol. of white… 32464  1242   219   370   3315 39361   1416
10 INI25009 Vol. of … Vol. of brain… 32464  1242   219   370   3315 39361   1416
# … with 428 more rows, and 5 more variables: Afr_MM <int>, SA_MM <int>,
#   others_MM <int>, total <int>, total_MM <int>
…
