…
5: T1 Structural brain MRI, Regional grey matter volumes (FAST)
6: T1 Structural brain MRI, Regional grey matter volumes (FAST)
                           GBE_short_name
1:      Vol. of grey matter in Amygdala L
2:      Vol. of grey matter in Amygdala R
3: Vol. of grey matter in Angular Gyrus L
4: Vol. of grey matter in Angular Gyrus R
5:      Vol. of grey matter in Brain-Stem
6:       Vol. of grey matter in Caudate L
   value < 0       n
1:     FALSE 7113603
   array       n
1:     0 7113603
[1] "phe_long_df"
# A tibble: 6,467,670 × 4
   FID     IID     GBE_ID    value
   <chr>   <chr>   <fct>     <dbl>
 1 1000044 1000044 INI25782 24772.
 2 1000289 1000289 INI25782 20901.
 3 1000457 1000457 INI25782 20766 
 4 1000537 1000537 INI25782 19754.
 5 1000703 1000703 INI25782 25231.
 6 1000742 1000742 INI25782 25478.
 7 1000756 1000756 INI25782 21701 
 8 1000881 1000881 INI25782 21820.
 9 1000890 1000890 INI25782 21962.
10 1001115 1001115 INI25782 22194.
# … with 6,467,660 more rows
…
488377:       NA       NA       NA       NA       NA       NA       NA       NA
        INI25916 INI25917 INI25918 INI25919 INI25920
     1:       NA       NA       NA       NA       NA
     2:       NA       NA       NA       NA       NA
     3:       NA       NA       NA       NA       NA
     4:       NA       NA       NA       NA       NA
     5:       NA       NA       NA       NA       NA
    ---                                             
488373:  458.650  2614.78  437.401   267.21  394.790
488374:  467.329  1884.40  485.490   179.06  467.321
488375:       NA       NA       NA       NA       NA
488376:       NA       NA       NA       NA       NA
488377:       NA       NA       NA       NA       NA
[1] "phe_counts_df"
# A tibble: 139 × 15
   GBE_ID   GBE_NAME  GBE_short_name    WB   NBW   Afr    SA others WB_MM NBW_MM
   <fct>    <chr>     <chr>          <int> <int> <int> <int>  <int> <int>  <int>
 1 INI25782 Volume o… Vol. of grey … 32459  1242   219   370   3315 39356   1416
 2 INI25783 Volume o… Vol. of grey … 32459  1242   219   370   3315 39356   1416
 3 INI25784 Volume o… Vol. of grey … 32459  1242   219   370   3315 39356   1416
 4 INI25785 Volume o… Vol. of grey … 32459  1242   219   370   3315 39356   1416
 5 INI25786 Volume o… Vol. of grey … 32459  1242   219   370   3315 39356   1416
 6 INI25787 Volume o… Vol. of grey … 32459  1242   219   370   3315 39356   1416
 7 INI25788 Volume o… Vol. of grey … 32459  1242   219   370   3315 39356   1416
 8 INI25789 Volume o… Vol. of grey … 32459  1242   219   370   3315 39356   1416
 9 INI25790 Volume o… Vol. of grey … 32459  1242   219   370   3315 39356   1416
10 INI25791 Volume o… Vol. of grey … 32459  1242   219   370   3315 39356   1416
# … with 129 more rows, and 5 more variables: Afr_MM <int>, SA_MM <int>,
#   others_MM <int>, total <int>, total_MM <int>
…
